((455a12 infotelefon))
((ühtlustas Andriela Rääbis 1.12.2004))

((kutsung))   | RIE: KUTSUNG |
V: `infotelefon=   | RIJ: KUTSUNGI VASTUVÕTMINE |     | RY: TUTVUSTUS |
Kersti=   | RY: TUTVUSTUS |
tere.   | RIE: TERVITUS |
H: tere.    | RIJ: VASTUTERVITUS |
(.) õ `Hansaliinid palun,    | DIE: SOOV |
(.) `Tartus,    | IL: TÄPSUSTAMINE |
{--}   | YA: PRAAK |
V: jah,    | VR: NEUTRAALNE VASTUVÕTUTEADE |
(.) üks=hetk.    | DIJ: EDASILÜKKAMINE |
(5.0) seitse? (.)  neli neli?   | DIJ: INFO ANDMINE |
(0.5)
H: [jah]   | VR: NEUTRAALNE JÄTKAJA |
V: [sei]tse kaks null kuus.   | DIJ: INFO ANDMINE |
H: seitse neli neli? (.) neli (.) [kaks?]      | KYE: VASTUST PAKKUV |   | PPE: ÜLEKÜSIMINE |
V: [`ei,]    | KYJ: EI |   | PPJ: LÄBIVIIMINE |
(0.5) seitse kaks null kuus.      | IL: TÄPSUSTAMINE |     | PPJ: LÄBIVIIMINE |
H: > akkame `otsast peale=h. <      | DIE: SOOV |     | PPE: MITTEMÕISTMINE |
V: < seitse neli neli,   | DIJ: INFO ANDMINE |     | PPJ: LÄBIVIIMINE |
H: {nii}   | VR: NEUTRAALNE JÄTKAJA |
V: seitse (.) kaks (0.5) null (.) kuus. >   | DIJ: INFO ANDMINE |     | PPJ: LÄBIVIIMINE |
(0.8)
H: seitse neli neli kaks kaks null kuus.   | KYE: VASTUST PAKKUV |    | PPE: ÜLEKÜSIMINE |
V: `ei olnud.   | KYJ: EI |   | PPJ: LÄBIVIIMINE |
H: hehehe   | VR: MUU |    | VR: PARANDUSE HINDAMINE | 
V: seitse < nelikümmend neli? >      | IL: TÄPSUSTAMINE |     | PPJ: LÄBIVIIMINE |
(0.5)
H: jah   | VR: NEUTRAALNE JÄTKAJA |
V: siis on < seitsekümmend `kaks?= >   | IL: TÄPSUSTAMINE |     | PPJ: LÄBIVIIMINE |
H: =seitsekend kaks.       | VR: NEUTRAALNE JÄTKAJA |
(.)  
V: null kuus.   | IL: TÄPSUSTAMINE |     | PPJ: LÄBIVIIMINE |
H: =null kuus,    | VR: NEUTRAALNE VASTUVÕTUTEADE |     | VR: PARANDUSE HINDAMINE |
aitäh?   | RIE: TÄNAN |
(.)
V: palun.   | RIJ: PALUN |

   

 
   

 
   

 
